…
## turn grouped data.frame to a list of data.frames by MainID
list_data <- mclapply(unique(df$MainID), function(id) filter_(df, .dots = ~MainID==id))

## Actually do the fitting in parallel
fits_list <- mclapply(list_data, kalman, method="BFGS")

## reshape outputs back to a data.frame
fits <- reshape2::melt(fits_list, id=names(fits_list[[1]])) %>% rename(MainID = L1) %>% as_data_frame()

We now have a nice table of parameter estimates and likelihoods by model for each data set:

fits

## Source: local data frame [45,725 x 4]
## Groups: MainID [1,633]
## 
##    MainID model parameter         value
##     <int> <chr>     <chr>         <dbl>
## 1       3   ssg        dt  3.467131e+00
## 2       3   ssg        Tt -1.334698e-01
## 3       3   ssg       HHt  6.379936e-02
## 4       3   ssg       GGt  1.766760e-01
## 5       3   ssg   mloglik  2.050357e+01
## 6       3   ssg  converge  0.000000e+00
## 7       3   ssg         n  2.700000e+01
## 8       3   ssg        a0  2.484907e+00
## 9       3  ssrw        dt  7.432463e-04
## 10      3  ssrw       HHt  8.397131e-10
## # ... with 45,715 more rows
…
