…
unit_occurs <- 
timeseries %>% 
  group_by(tsid) %>% 
  distinct(assessid) %>%
  summarize(occurs = n()) %>% 
  left_join(tsmetrics) %>% 
  arrange(desc(occurs)) %>% 
  select(tsid, tslong, tsunitsshort, occurs)

## Joining, by = "tsid"

unit_occurs

## # A tibble: 93 × 4
##                       tsid
##                      <chr>
## 1                    TB-MT
## 2                   SSB-MT
## 3                    R-E03
## 4                    TC-MT
## 5                    TL-MT
## 6                    F-1/T
## 7                   F-1/yr
## 8                 ER-ratio
## 9  Yield-SSB-dimensionless
## 10                 YEAR-yr
## # ... with 83 more rows, and 3 more variables: tslong <chr>,
## #   tsunitsshort <chr>, occurs <int>
…
The values table appears to be derived from the timeseries table, presumably standardizing on consistent metrics(?)

values

## # A tibble: 16,308 × 9
##                         assessid tsyear pt_avail       ssb       r
## *                          <chr>  <int>    <dbl>     <dbl>   <dbl>
## 1  ADFG-HERRPWS-1980-2006-COLLIE   1980        5  48270.35  414070
## 2  ADFG-HERRPWS-1980-2006-COLLIE   1981        5  51090.88  335200
## 3  ADFG-HERRPWS-1980-2006-COLLIE   1982        5  47402.54  112300
## 4  ADFG-HERRPWS-1980-2006-COLLIE   1983        5  56449.01  103740
## 5  ADFG-HERRPWS-1980-2006-COLLIE   1984        5  64461.28 1062360
## 6  ADFG-HERRPWS-1980-2006-COLLIE   1985        5  79124.61   99630
## 7  ADFG-HERRPWS-1980-2006-COLLIE   1986        5  65601.06   74880
## 8  ADFG-HERRPWS-1980-2006-COLLIE   1987        5  70646.42   84820
## 9  ADFG-HERRPWS-1980-2006-COLLIE   1988        5  93508.20 1006440
## 10 ADFG-HERRPWS-1980-2006-COLLIE   1989        5 105135.41  119970
## # ... with 16,298 more rows, and 4 more variables: total <dbl>, f <dbl>,
## #   cpue <dbl>, catch_landings <dbl>
…
